{
    "key": "group_5d555b450b5b4",
    "title": "Sektioner",
    "fields": [
        {
            "key": "field_5d555b4a0b060",
            "label": "Sektioner",
            "name": "sektioner",
            "type": "flexible_content",
            "instructions": "",
            "required": 0,
            "conditional_logic": 0,
            "wrapper": {
                "width": "",
                "class": "",
                "id": ""
            },
            "layouts": {
                "layout_5d555b754b6d5": {
                    "key": "layout_5d555b754b6d5",
                    "name": "billedesektion",
                    "label": "Billedesektion",
                    "display": "block",
                    "sub_fields": [
                        {
                            "key": "field_5d555b7f0b061",
                            "label": "Billede 1",
                            "name": "billede_1",
                            "type": "image",
                            "instructions": "",
                            "required": 1,
                            "conditional_logic": 0,
                            "wrapper": {
                                "width": "",
                                "class": "",
                                "id": ""
                            },
                            "return_format": "id",
                            "preview_size": "medium",
                            "library": "all",
                            "min_width": "",
                            "min_height": "",
                            "min_size": "",
                            "max_width": "",
                            "max_height": "",
                            "max_size": "",
                            "mime_types": ""
                        },
                        {
                            "key": "field_5d555b910b063",
                            "label": "Billede 2",
                            "name": "billede_2",
                            "type": "image",
                            "instructions": "OBS: bliver skjult på mobil",
                            "required": 1,
                            "conditional_logic": 0,
                            "wrapper": {
                                "width": "",
                                "class": "",
                                "id": ""
                            },
                            "return_format": "id",
                            "preview_size": "medium",
                            "library": "all",
                            "min_width": "",
                            "min_height": "",
                            "min_size": "",
                            "max_width": "",
                            "max_height": "",
                            "max_size": "",
                            "mime_types": ""
                        },
                        {
                            "key": "field_5d555b8f0b062",
                            "label": "Billede 3",
                            "name": "billede_3",
                            "type": "image",
                            "instructions": "OBS: bliver skjult på mobil",
                            "required": 1,
                            "conditional_logic": 0,
                            "wrapper": {
                                "width": "",
                                "class": "",
                                "id": ""
                            },
                            "return_format": "id",
                            "preview_size": "medium",
                            "library": "all",
                            "min_width": "",
                            "min_height": "",
                            "min_size": "",
                            "max_width": "",
                            "max_height": "",
                            "max_size": "",
                            "mime_types": ""
                        }
                    ],
                    "min": "",
                    "max": ""
                },
                "layout_5d556429ebe13": {
                    "key": "layout_5d556429ebe13",
                    "name": "text-aside",
                    "label": "Text - aside",
                    "display": "block",
                    "sub_fields": [
                        {
                            "key": "field_5d55643bebe14",
                            "label": "Indhold",
                            "name": "indhold",
                            "type": "wysiwyg",
                            "instructions": "",
                            "required": 1,
                            "conditional_logic": 0,
                            "wrapper": {
                                "width": "70",
                                "class": "",
                                "id": ""
                            },
                            "default_value": "",
                            "tabs": "all",
                            "toolbar": "full",
                            "media_upload": 1,
                            "delay": 0
                        },
                        {
                            "key": "field_5d556445ebe15",
                            "label": "Sideindhold",
                            "name": "sideindhold",
                            "type": "flexible_content",
                            "instructions": "",
                            "required": 0,
                            "conditional_logic": 0,
                            "wrapper": {
                                "width": "30",
                                "class": "",
                                "id": ""
                            },
                            "layouts": {
                                "layout_5d556458a6b49": {
                                    "key": "layout_5d556458a6b49",
                                    "name": "usp",
                                    "label": "USP'er",
                                    "display": "block",
                                    "sub_fields": [
                                        {
                                            "key": "field_5d556463ebe16",
                                            "label": "Overskrift",
                                            "name": "overskrift",
                                            "type": "text",
                                            "instructions": "",
                                            "required": 0,
                                            "conditional_logic": 0,
                                            "wrapper": {
                                                "width": "",
                                                "class": "",
                                                "id": ""
                                            },
                                            "default_value": "",
                                            "placeholder": "",
                                            "prepend": "",
                                            "append": "",
                                            "maxlength": ""
                                        },
                                        {
                                            "key": "field_5d55646bebe17",
                                            "label": "USP'er",
                                            "name": "usp_er",
                                            "type": "repeater",
                                            "instructions": "",
                                            "required": 0,
                                            "conditional_logic": 0,
                                            "wrapper": {
                                                "width": "",
                                                "class": "",
                                                "id": ""
                                            },
                                            "collapsed": "",
                                            "min": 0,
                                            "max": 0,
                                            "layout": "table",
                                            "button_label": "Tilføj USP",
                                            "sub_fields": [
                                                {
                                                    "key": "field_5d568cf28ca8b",
                                                    "label": "Text",
                                                    "name": "text",
                                                    "type": "text",
                                                    "instructions": "",
                                                    "required": 0,
                                                    "conditional_logic": 0,
                                                    "wrapper": {
                                                        "width": "",
                                                        "class": "",
                                                        "id": ""
                                                    },
                                                    "default_value": "",
                                                    "placeholder": "",
                                                    "prepend": "",
                                                    "append": "",
                                                    "maxlength": ""
                                                }
                                            ]
                                        }
                                    ],
                                    "min": "",
                                    "max": ""
                                },
                                "layout_5d66295cb8ee0": {
                                    "key": "layout_5d66295cb8ee0",
                                    "name": "kasse",
                                    "label": "Kasse",
                                    "display": "block",
                                    "sub_fields": [
                                        {
                                            "key": "field_5d662960b8ee1",
                                            "label": "Overskrift",
                                            "name": "overskrift",
                                            "type": "text",
                                            "instructions": "",
                                            "required": 0,
                                            "conditional_logic": 0,
                                            "wrapper": {
                                                "width": "",
                                                "class": "",
                                                "id": ""
                                            },
                                            "default_value": "",
                                            "placeholder": "",
                                            "prepend": "",
                                            "append": "",
                                            "maxlength": ""
                                        },
                                        {
                                            "key": "field_5d662966b8ee2",
                                            "label": "Indhold",
                                            "name": "indhold",
                                            "type": "wysiwyg",
                                            "instructions": "",
                                            "required": 0,
                                            "conditional_logic": 0,
                                            "wrapper": {
                                                "width": "",
                                                "class": "",
                                                "id": ""
                                            },
                                            "default_value": "",
                                            "tabs": "all",
                                            "toolbar": "full",
                                            "media_upload": 1,
                                            "delay": 0
                                        },
                                        {
                                            "key": "field_5d66296fb8ee3",
                                            "label": "Link",
                                            "name": "link",
                                            "type": "link",
                                            "instructions": "",
                                            "required": 0,
                                            "conditional_logic": 0,
                                            "wrapper": {
                                                "width": "",
                                                "class": "",
                                                "id": ""
                                            },
                                            "return_format": "array"
                                        }
                                    ],
                                    "min": "",
                                    "max": ""
                                }
                            },
                            "button_label": "Tilføj sideindhold",
                            "min": "",
                            "max": ""
                        },
                        {
                            "key": "field_5d5bbfc644c9b",
                            "label": "Læs mere",
                            "name": "laes_mere",
                            "type": "true_false",
                            "instructions": "",
                            "required": 0,
                            "conditional_logic": 0,
                            "wrapper": {
                                "width": "",
                                "class": "",
                                "id": ""
                            },
                            "message": "",
                            "default_value": 0,
                            "ui": 1,
                            "ui_on_text": "Aktiver læs mere",
                            "ui_off_text": "Deaktivrer læs mere"
                        },
                        {
                            "key": "field_5d5bb5a971e1f",
                            "label": "Knapper",
                            "name": "knapper",
                            "type": "repeater",
                            "instructions": "",
                            "required": 0,
                            "conditional_logic": 0,
                            "wrapper": {
                                "width": "",
                                "class": "",
                                "id": ""
                            },
                            "collapsed": "",
                            "min": 0,
                            "max": 0,
                            "layout": "table",
                            "button_label": "",
                            "sub_fields": [
                                {
                                    "key": "field_5d5bb5bb71e20",
                                    "label": "Knap",
                                    "name": "knap",
                                    "type": "link",
                                    "instructions": "",
                                    "required": 0,
                                    "conditional_logic": 0,
                                    "wrapper": {
                                        "width": "",
                                        "class": "",
                                        "id": ""
                                    },
                                    "return_format": "array"
                                }
                            ]
                        }
                    ],
                    "min": "",
                    "max": ""
                },
                "layout_5d66289fc7aa9": {
                    "key": "layout_5d66289fc7aa9",
                    "name": "text",
                    "label": "Text",
                    "display": "block",
                    "sub_fields": [
                        {
                            "key": "field_5d6628a5c7aaa",
                            "label": "indhold",
                            "name": "indhold",
                            "type": "wysiwyg",
                            "instructions": "",
                            "required": 1,
                            "conditional_logic": 0,
                            "wrapper": {
                                "width": "",
                                "class": "",
                                "id": ""
                            },
                            "default_value": "",
                            "tabs": "all",
                            "toolbar": "full",
                            "media_upload": 1,
                            "delay": 0
                        }
                    ],
                    "min": "",
                    "max": ""
                },
                "layout_5d56a29946243": {
                    "key": "layout_5d56a29946243",
                    "name": "slideshow",
                    "label": "Slideshow",
                    "display": "block",
                    "sub_fields": [
                        {
                            "key": "field_5d56a2a046244",
                            "label": "Billeder",
                            "name": "billeder",
                            "type": "gallery",
                            "instructions": "",
                            "required": 1,
                            "conditional_logic": 0,
                            "wrapper": {
                                "width": "",
                                "class": "",
                                "id": ""
                            },
                            "return_format": "id",
                            "preview_size": "medium",
                            "insert": "append",
                            "library": "all",
                            "min": "",
                            "max": "",
                            "min_width": "",
                            "min_height": "",
                            "min_size": "",
                            "max_width": "",
                            "max_height": "",
                            "max_size": "",
                            "mime_types": ""
                        }
                    ],
                    "min": "",
                    "max": ""
                },
                "layout_5d56ab22c5ac1": {
                    "key": "layout_5d56ab22c5ac1",
                    "name": "citater",
                    "label": "Citater",
                    "display": "block",
                    "sub_fields": [
                        {
                            "key": "field_5d56ab4ec5ac2",
                            "label": "Citat",
                            "name": "citat",
                            "type": "post_object",
                            "instructions": "",
                            "required": 1,
                            "conditional_logic": 0,
                            "wrapper": {
                                "width": "",
                                "class": "",
                                "id": ""
                            },
                            "post_type": [
                                "citat"
                            ],
                            "taxonomy": "",
                            "allow_null": 0,
                            "multiple": 1,
                            "return_format": "object",
                            "ui": 1
                        }
                    ],
                    "min": "",
                    "max": ""
                },
                "layout_5d5ba1b2ededd": {
                    "key": "layout_5d5ba1b2ededd",
                    "name": "cta",
                    "label": "CTA",
                    "display": "block",
                    "sub_fields": [
                        {
                            "key": "field_5d5ba1b8edede",
                            "label": "Overskrift",
                            "name": "overskrift",
                            "type": "textarea",
                            "instructions": "",
                            "required": 1,
                            "conditional_logic": 0,
                            "wrapper": {
                                "width": "",
                                "class": "",
                                "id": ""
                            },
                            "default_value": "",
                            "placeholder": "",
                            "maxlength": "",
                            "rows": "",
                            "new_lines": "wpautop"
                        },
                        {
                            "key": "field_5d5ba1cfededf",
                            "label": "Knap",
                            "name": "knap",
                            "type": "link",
                            "instructions": "",
                            "required": 0,
                            "conditional_logic": 0,
                            "wrapper": {
                                "width": "",
                                "class": "",
                                "id": ""
                            },
                            "return_format": "array"
                        }
                    ],
                    "min": "",
                    "max": ""
                },
                "layout_5d5be263f414f": {
                    "key": "layout_5d5be263f414f",
                    "name": "tabs_sektion",
                    "label": "Tabs",
                    "display": "block",
                    "sub_fields": [
                        {
                            "key": "field_5d5be27bf4150",
                            "label": "Indledning",
                            "name": "overskrift",
                            "type": "wysiwyg",
                            "instructions": "",
                            "required": 1,
                            "conditional_logic": 0,
                            "wrapper": {
                                "width": "",
                                "class": "",
                                "id": ""
                            },
                            "default_value": "",
                            "tabs": "all",
                            "toolbar": "full",
                            "media_upload": 1,
                            "delay": 0
                        },
                        {
                            "key": "field_5d5be295f4151",
                            "label": "Tabs",
                            "name": "tabs",
                            "type": "repeater",
                            "instructions": "",
                            "required": 1,
                            "conditional_logic": 0,
                            "wrapper": {
                                "width": "",
                                "class": "",
                                "id": ""
                            },
                            "collapsed": "",
                            "min": 0,
                            "max": 3,
                            "layout": "block",
                            "button_label": "",
                            "sub_fields": [
                                {
                                    "key": "field_5d5be2a8f4152",
                                    "label": "Tab overskrift",
                                    "name": "tab_overskrift",
                                    "type": "text",
                                    "instructions": "",
                                    "required": 0,
                                    "conditional_logic": 0,
                                    "wrapper": {
                                        "width": "",
                                        "class": "",
                                        "id": ""
                                    },
                                    "default_value": "",
                                    "placeholder": "",
                                    "prepend": "",
                                    "append": "",
                                    "maxlength": ""
                                },
                                {
                                    "key": "field_5d5be2b6f4153",
                                    "label": "Tab indhold",
                                    "name": "tab_indhold",
                                    "type": "repeater",
                                    "instructions": "",
                                    "required": 0,
                                    "conditional_logic": 0,
                                    "wrapper": {
                                        "width": "",
                                        "class": "",
                                        "id": ""
                                    },
                                    "collapsed": "",
                                    "min": 0,
                                    "max": 0,
                                    "layout": "row",
                                    "button_label": "",
                                    "sub_fields": [
                                        {
                                            "key": "field_5d5be2cbf4154",
                                            "label": "Billede",
                                            "name": "billede",
                                            "type": "image",
                                            "instructions": "",
                                            "required": 0,
                                            "conditional_logic": 0,
                                            "wrapper": {
                                                "width": "",
                                                "class": "",
                                                "id": ""
                                            },
                                            "return_format": "id",
                                            "preview_size": "medium",
                                            "library": "all",
                                            "min_width": "",
                                            "min_height": "",
                                            "min_size": "",
                                            "max_width": "",
                                            "max_height": "",
                                            "max_size": "",
                                            "mime_types": ""
                                        },
                                        {
                                            "key": "field_5d5be2ebf4155",
                                            "label": "Over overskrift",
                                            "name": "over_overskrift",
                                            "type": "text",
                                            "instructions": "",
                                            "required": 0,
                                            "conditional_logic": 0,
                                            "wrapper": {
                                                "width": "",
                                                "class": "",
                                                "id": ""
                                            },
                                            "default_value": "",
                                            "placeholder": "",
                                            "prepend": "",
                                            "append": "",
                                            "maxlength": ""
                                        },
                                        {
                                            "key": "field_5d5be2faf4156",
                                            "label": "Overskrift",
                                            "name": "overskrift",
                                            "type": "text",
                                            "instructions": "",
                                            "required": 0,
                                            "conditional_logic": 0,
                                            "wrapper": {
                                                "width": "",
                                                "class": "",
                                                "id": ""
                                            },
                                            "default_value": "",
                                            "placeholder": "",
                                            "prepend": "",
                                            "append": "",
                                            "maxlength": ""
                                        },
                                        {
                                            "key": "field_5d5be303f4157",
                                            "label": "Indledning",
                                            "name": "indledning",
                                            "type": "text",
                                            "instructions": "",
                                            "required": 0,
                                            "conditional_logic": 0,
                                            "wrapper": {
                                                "width": "",
                                                "class": "",
                                                "id": ""
                                            },
                                            "default_value": "",
                                            "placeholder": "",
                                            "prepend": "",
                                            "append": "",
                                            "maxlength": ""
                                        },
                                        {
                                            "key": "field_5d5be310f4158",
                                            "label": "Link",
                                            "name": "link",
                                            "type": "link",
                                            "instructions": "",
                                            "required": 0,
                                            "conditional_logic": 0,
                                            "wrapper": {
                                                "width": "",
                                                "class": "",
                                                "id": ""
                                            },
                                            "return_format": "array"
                                        }
                                    ]
                                }
                            ]
                        }
                    ],
                    "min": "",
                    "max": ""
                },
                "layout_5d5bdf84bf70b": {
                    "key": "layout_5d5bdf84bf70b",
                    "name": "links_kasser",
                    "label": "Links kasser",
                    "display": "block",
                    "sub_fields": [
                        {
                            "key": "field_5d5bdf92bf70c",
                            "label": "Overskrift",
                            "name": "overskrift",
                            "type": "text",
                            "instructions": "",
                            "required": 0,
                            "conditional_logic": 0,
                            "wrapper": {
                                "width": "",
                                "class": "",
                                "id": ""
                            },
                            "default_value": "",
                            "placeholder": "",
                            "prepend": "",
                            "append": "",
                            "maxlength": ""
                        },
                        {
                            "key": "field_5d5bdfa1bf70d",
                            "label": "Links",
                            "name": "link_bokse",
                            "type": "repeater",
                            "instructions": "",
                            "required": 1,
                            "conditional_logic": 0,
                            "wrapper": {
                                "width": "",
                                "class": "",
                                "id": ""
                            },
                            "collapsed": "",
                            "min": 0,
                            "max": 0,
                            "layout": "table",
                            "button_label": "",
                            "sub_fields": [
                                {
                                    "key": "field_5d5bdff2bf70e",
                                    "label": "Billede",
                                    "name": "billede",
                                    "type": "image",
                                    "instructions": "",
                                    "required": 1,
                                    "conditional_logic": 0,
                                    "wrapper": {
                                        "width": "",
                                        "class": "",
                                        "id": ""
                                    },
                                    "return_format": "id",
                                    "preview_size": "medium",
                                    "library": "all",
                                    "min_width": "",
                                    "min_height": "",
                                    "min_size": "",
                                    "max_width": "",
                                    "max_height": "",
                                    "max_size": "",
                                    "mime_types": ""
                                },
                                {
                                    "key": "field_5d5be000bf70f",
                                    "label": "Link",
                                    "name": "link",
                                    "type": "link",
                                    "instructions": "",
                                    "required": 1,
                                    "conditional_logic": 0,
                                    "wrapper": {
                                        "width": "",
                                        "class": "",
                                        "id": ""
                                    },
                                    "return_format": "array"
                                }
                            ]
                        }
                    ],
                    "min": "",
                    "max": ""
                },
                "layout_5d6386408c7d0": {
                    "key": "layout_5d6386408c7d0",
                    "name": "links_knapper",
                    "label": "Links knapper",
                    "display": "block",
                    "sub_fields": [
                        {
                            "key": "field_5d6386468c7d1",
                            "label": "Knapper",
                            "name": "knapper",
                            "type": "repeater",
                            "instructions": "",
                            "required": 1,
                            "conditional_logic": 0,
                            "wrapper": {
                                "width": "",
                                "class": "",
                                "id": ""
                            },
                            "collapsed": "",
                            "min": 0,
                            "max": 0,
                            "layout": "table",
                            "button_label": "",
                            "sub_fields": [
                                {
                                    "key": "field_5d63a7c3427a9",
                                    "label": "Link",
                                    "name": "link",
                                    "type": "link",
                                    "instructions": "",
                                    "required": 0,
                                    "conditional_logic": 0,
                                    "wrapper": {
                                        "width": "",
                                        "class": "",
                                        "id": ""
                                    },
                                    "return_format": "array"
                                }
                            ]
                        }
                    ],
                    "min": "",
                    "max": ""
                },
                "layout_5d63871f6d7dd": {
                    "key": "layout_5d63871f6d7dd",
                    "name": "usp_links_kasser",
                    "label": "USP links kasser",
                    "display": "block",
                    "sub_fields": [
                        {
                            "key": "field_5d63872a6d7de",
                            "label": "Indledning",
                            "name": "indledning",
                            "type": "wysiwyg",
                            "instructions": "",
                            "required": 0,
                            "conditional_logic": 0,
                            "wrapper": {
                                "width": "",
                                "class": "",
                                "id": ""
                            },
                            "default_value": "",
                            "tabs": "all",
                            "toolbar": "full",
                            "media_upload": 1,
                            "delay": 0
                        },
                        {
                            "key": "field_5d6387376d7df",
                            "label": "USP kasser",
                            "name": "usp_kasser",
                            "type": "repeater",
                            "instructions": "",
                            "required": 1,
                            "conditional_logic": 0,
                            "wrapper": {
                                "width": "",
                                "class": "",
                                "id": ""
                            },
                            "collapsed": "",
                            "min": 0,
                            "max": 0,
                            "layout": "row",
                            "button_label": "",
                            "sub_fields": [
                                {
                                    "key": "field_5d63874c6d7e0",
                                    "label": "Billede",
                                    "name": "billede",
                                    "type": "image",
                                    "instructions": "",
                                    "required": 0,
                                    "conditional_logic": 0,
                                    "wrapper": {
                                        "width": "",
                                        "class": "",
                                        "id": ""
                                    },
                                    "return_format": "id",
                                    "preview_size": "medium",
                                    "library": "all",
                                    "min_width": "",
                                    "min_height": "",
                                    "min_size": "",
                                    "max_width": "",
                                    "max_height": "",
                                    "max_size": "",
                                    "mime_types": ""
                                },
                                {
                                    "key": "field_5d6387f943b5c",
                                    "label": "Overskrift",
                                    "name": "overskrift",
                                    "type": "text",
                                    "instructions": "",
                                    "required": 0,
                                    "conditional_logic": 0,
                                    "wrapper": {
                                        "width": "",
                                        "class": "",
                                        "id": ""
                                    },
                                    "default_value": "",
                                    "placeholder": "",
                                    "prepend": "",
                                    "append": "",
                                    "maxlength": ""
                                },
                                {
                                    "key": "field_5d63880a43b5d",
                                    "label": "Usp'er",
                                    "name": "usp_er",
                                    "type": "repeater",
                                    "instructions": "",
                                    "required": 0,
                                    "conditional_logic": 0,
                                    "wrapper": {
                                        "width": "",
                                        "class": "",
                                        "id": ""
                                    },
                                    "collapsed": "",
                                    "min": 0,
                                    "max": 0,
                                    "layout": "table",
                                    "button_label": "",
                                    "sub_fields": [
                                        {
                                            "key": "field_5d63883543b5e",
                                            "label": "text",
                                            "name": "text",
                                            "type": "text",
                                            "instructions": "",
                                            "required": 0,
                                            "conditional_logic": 0,
                                            "wrapper": {
                                                "width": "",
                                                "class": "",
                                                "id": ""
                                            },
                                            "default_value": "",
                                            "placeholder": "",
                                            "prepend": "",
                                            "append": "",
                                            "maxlength": ""
                                        }
                                    ]
                                },
                                {
                                    "key": "field_5d63884343b5f",
                                    "label": "Link",
                                    "name": "link",
                                    "type": "link",
                                    "instructions": "",
                                    "required": 0,
                                    "conditional_logic": 0,
                                    "wrapper": {
                                        "width": "",
                                        "class": "",
                                        "id": ""
                                    },
                                    "return_format": "array"
                                }
                            ]
                        }
                    ],
                    "min": "",
                    "max": ""
                },
                "layout_5d639033d4752": {
                    "key": "layout_5d639033d4752",
                    "name": "priser",
                    "label": "Priser",
                    "display": "block",
                    "sub_fields": [
                        {
                            "key": "field_5d639038d4753",
                            "label": "Indledning",
                            "name": "indledning",
                            "type": "wysiwyg",
                            "instructions": "",
                            "required": 0,
                            "conditional_logic": 0,
                            "wrapper": {
                                "width": "",
                                "class": "",
                                "id": ""
                            },
                            "default_value": "",
                            "tabs": "all",
                            "toolbar": "full",
                            "media_upload": 1,
                            "delay": 0
                        },
                        {
                            "key": "field_5d639044d4754",
                            "label": "Priskasser",
                            "name": "priskasser",
                            "type": "post_object",
                            "instructions": "",
                            "required": 0,
                            "conditional_logic": 0,
                            "wrapper": {
                                "width": "",
                                "class": "",
                                "id": ""
                            },
                            "post_type": [
                                "prisliste"
                            ],
                            "taxonomy": "",
                            "allow_null": 0,
                            "multiple": 1,
                            "return_format": "object",
                            "ui": 1
                        }
                    ],
                    "min": "",
                    "max": ""
                },
                "layout_5d63bcea545b6": {
                    "key": "layout_5d63bcea545b6",
                    "name": "udvalgte_events",
                    "label": "Udvalgte events",
                    "display": "block",
                    "sub_fields": [
                        {
                            "key": "field_5d63c30713b2c",
                            "label": "Overskrift",
                            "name": "overskrift",
                            "type": "text",
                            "instructions": "",
                            "required": 1,
                            "conditional_logic": 0,
                            "wrapper": {
                                "width": "",
                                "class": "",
                                "id": ""
                            },
                            "default_value": "",
                            "placeholder": "",
                            "prepend": "",
                            "append": "",
                            "maxlength": ""
                        },
                        {
                            "key": "field_5d63bcf0545b7",
                            "label": "Events",
                            "name": "events",
                            "type": "post_object",
                            "instructions": "",
                            "required": 1,
                            "conditional_logic": 0,
                            "wrapper": {
                                "width": "",
                                "class": "",
                                "id": ""
                            },
                            "post_type": [
                                "events"
                            ],
                            "taxonomy": "",
                            "allow_null": 0,
                            "multiple": 1,
                            "return_format": "object",
                            "ui": 1
                        }
                    ],
                    "min": "",
                    "max": ""
                }
            },
            "button_label": "Tilføj sektion",
            "min": "",
            "max": ""
        }
    ],
    "location": [
        [
            {
                "param": "post_type",
                "operator": "==",
                "value": "page"
            }
        ]
    ],
    "menu_order": 0,
    "position": "normal",
    "style": "default",
    "label_placement": "top",
    "instruction_placement": "label",
    "hide_on_screen": "",
    "active": 1,
    "description": "",
    "modified": 1603372198
}